[
  {
    "property": {
      "hotelName": "The Round About hotel",
      "location": "2468 Champlain St NW, Washington, DC 20009",
      "country": "US",
      "state": "DC",
      "price": "$320 to  +$1000",
      "description": "Inspired by the District and housed inside a 110-year old historic church, the Round About DC is the product of a community effort by local chefs, bartenders, artists, and cultural contributors. Located in the heart of Adams Morgan – where cultures intersect to create one of Washington, DC’s most diverse, non-stop neighborhoods – the Round About delivers a uniquely rich way to experience the nation’s capital.",
      "rating": "4 star",
      "thumbImg": "/images/round-about/thumb/round-about-thumb.png",
      "offering": {
        "West-Corner": {
          "image": "/images/round-about/penny-wise-king.jpg",
          "roomTypes": {
            "byOccupancy": [
              "Single"
            ],
            "byBed": [
              "King"
            ],
            "byLayout": [
              "Standard",
              "Deluxe"
            ]
          }
        },
        "Southern-Exposure": {
          "image": "/images/round-about/queen-from-head.png",
          "roomTypes": {
            "byOccupancy": [
              "Single"
            ],
            "byBed": [
              "Queen"
            ],
            "byLayout": [
              "Deluxe"
            ]
          }
        },
        "Cityscape": {
          "image": "/images/round-about/small-queen.png",
          "roomTypes": {
            "byOccupancy": [
              "Single"
            ],
            "byBed": [
              "Queen"
            ],
            "byLayout": [
              "Deluxe"
            ]
          }
        },
        "Sleepover": {
          "image": "/images/round-about/standard-double-with-full.jpg",
          "roomTypes": {
            "byOccupancy": [
              "Triple"
            ],
            "byBed": [
              "Queen",
              "Twin"
            ],
            "byLayout": [
              "Standard"
            ]
          }
        }
      }
    }
  },
  {
    "property": {
      "hotelName": "The King of Clubs Manor",
      "location": "600 Carondelet Street, New Orleans, LA",
      "country": "US",
      "state": "LA",
      "price": "$800 to  +$3000",
      "description": "Jazz and Blues lives in New Orleans on the corner of Carondelet and Lafayette in one of the best cities on Earth. Our rooms and public spaces are driven by a sense of design and wonder.",
      "rating": "5 star",
      "thumbImg": "/images/king-of-clubs/thumb/king-clubs-thumb.png",
      "offering": {
        "Patron-Terrace": {
          "image": "/images/king-of-clubs/patron-king-terrace.jpg",
          "roomTypes": {
            "byOccupancy": [
              "Single",
              "Double"
            ],
            "byBed": [
              "Queen",
              "King"
            ],
            "byLayout": [
              "Suite",
              "Apartment-style"
            ]
          }
        },
        "Satchmo": {
          "image": "/images/king-of-clubs/superior-king-window.jpg",
          "roomTypes": {
            "byOccupancy": [
              "Single"
            ],
            "byBed": [
              "King"
            ],
            "byLayout": [
              "Deluxe"
            ]
          }
        },
        "Funny-Valentine": {
          "image": "/images/king-of-clubs/vintage-king.png",
          "roomTypes": {
            "byOccupancy": [
              "Single",
              "Double"
            ],
            "byBed": [
              "King"
            ],
            "byLayout": [
              "Deluxe"
            ]
          }
        }
      }
    }
  },
  {
    "property": {
      "hotelName": "City Center",
      "location": "950 New York Ave. NW Washington, DC 20001 ",
      "country": "US",
      "state": "DC",
      "price": "$200 to $500",
      "description": "CityCenterDC is downtown's signature neighborhood where an unmatched mix of shops, restaurants, apartments, condominiums, hotel, office buildings and common area blend for a vibrant urban experience.",
      "rating": "3 star",
      "thumbImg": "/images/city-center/thumb/city-center-thumb.png",
      "offering": {
        "Junior-Standard": {
          "image": "/images/city-center/single-bed.jpg",
          "roomTypes": {
            "byOccupancy": [
              "Single"
            ],
            "byBed": [
              "Studio"
            ],
            "byLayout": [
              "Standard"
            ]
          }
        },
        "Junior-Executive": {
          "image": "/images/city-center/standard-queen.jpeg",
          "roomTypes": {
            "byOccupancy": [
              "Single"
            ],
            "byBed": [
              "Queen"
            ],
            "byLayout": [
              "Connecting"
            ]
          }
        }
      }
    }
  },
  {
    "property": {
      "hotelName": "Devil's Crossroad Hotel & Spa",
      "location": "789 Ponce De Leon Ave NE Jackson, MS 30306",
      "country": "US",
      "state": "MS",
      "price": "$1250 to $2250",
      "description": "Jackson, newest Art Deco darling, and can be found on the historic Printers Alley in a building that was once home to Noel Place, one of Music City’s premier luxury hotels that opened in 1930",
      "rating": "5 star",
      "thumbImg": "/images/devils-crossroad/thumb/devils-cross-thumb.png",
      "offering": {
        "French-Quarter": {
          "image": "/images/devils-crossroad/MuddyWaters-King-Patron.jpg",
          "roomTypes": {
            "byOccupancy": [
              "Single"
            ],
            "byBed": [
              "Queen"
            ],
            "byLayout": [
              "Apartment-style"
            ]
          }
        },
        "Highway-Side": {
          "image": "/images/devils-crossroad/patron-2-queen.jpg",
          "roomTypes": {
            "byOccupancy": [
              "Single",
              "Double"
            ],
            "byBed": [
              "King",
              "Studio"
            ],
            "byLayout": [
              "Suite"
            ]
          }
        },
        "Stagger-Lee": {
          "image": "/images/devils-crossroad/patron-4-queen.jpg",
          "roomTypes": {
            "byOccupancy": [
              "Single",
              "Double"
            ],
            "byBed": [
              "Queen",
              "Studio"
            ],
            "byLayout": [
              "Suite"
            ]
          }
        },
        "Cotton-top": {
          "image": "/images/devils-crossroad/patron-queen-feature.jpg",
          "roomTypes": {
            "byOccupancy": [
              "Single",
              "Double"
            ],
            "byBed": [
              "Queen",
              "Studio"
            ],
            "byLayout": [
              "Suite"
            ]
          }
        }
      }
    }
  },
  {
    "property": {
      "hotelName": "Dwell Motel",
      "location": "31 West Pender, V6B 1R3 Vancouver, Canada ",
      "country": "CA",
      "state": "Vancouver",
      "price": "c$120 to c$320",
      "description": "Each of the bedrooms at this creative Vancouver boutique hotel features unique and unusual themed artwork from well-known tribal artists and offers top-of-the-range comforts including high-quality linens and walk-in showers.",
      "rating": "2 star",
      "thumbImg": "/images/dwell/thumb/dwell-thumb.png",
      "offering": {
        "110-Studio": {
          "image": "/images/dwell/double-delux-beds.jpg",
          "roomTypes": {
            "byOccupancy": [
              "Triple"
            ],
            "byBed": [
              "Twin"
            ],
            "byLayout": [
              "Studio"
            ]
          }
        },
        "210-Suite": {
          "image": "/images/dwell/double-full-2.jpg",
          "roomTypes": {
            "byOccupancy": [
              "Triple"
            ],
            "byBed": [
              "Queen",
              "Twin"
            ],
            "byLayout": [
              "Suite"
            ]
          }
        },
        "Penthouse": {
          "image": "/images/dwell/patron-3-queen.jpg",
          "roomTypes": {
            "byOccupancy": [
              "Double"
            ],
            "byBed": [
              "Queen"
            ],
            "byLayout": [
              "Deluxe"
            ]
          }
        }
      }
    }
  },
  {
    "property": {
      "hotelName": "Sweet Dreams",
      "location": "R. de São Nicolau 13 2Esq, 1100-547 Lisbon, Portugal",
      "country": "PT",
      "state": "Lisbon",
      "price": "€125 to €230",
      "description": "Bed and Breakfast with a lounge & a dining room/bar..",
      "rating": "1 star",
      "thumbImg": "/images/sweet-dreams/thumb/sweet-dream-thumb.png",
      "offering": {
        "Basement": {
          "image": "/images/sweet-dreams/mens-dorm.jpg",
          "roomTypes": {
            "byOccupancy": [
              "Dormitory"
            ],
            "byBed": [
              "Triple"
            ],
            "byLayout": [
              "Studio"
            ]
          }
        },
        "Store-front": {
          "image": "/images/sweet-dreams/patron-1-queen.jpg",
          "roomTypes": {
            "byOccupancy": [
              "Double"
            ],
            "byBed": [
              "Queen"
            ],
            "byLayout": [
              "Deluxe"
            ]
          }
        },
        "Cottage": {
          "image": "/images/sweet-dreams/standard-double-2.jpg",
          "roomTypes": {
            "byOccupancy": [
              "Double"
            ],
            "byBed": [
              "Twin"
            ],
            "byLayout": [
              "Standard"
            ]
          }
        }
      }
    }
  },
  {
    "property":  {
      "hotelName": "Soho Hostel",
      "location": "7 Dock St, London E1 8LL, United Kingdom",
      "country": "UK",
      "state": "London",
      "price": "£140 to £310",
      "description": "Modern hostel offering bright dorms and rooms with en suite bathrooms and free WiFi, plus a hip bar.",
      "rating": "3 star",
      "thumbImg": "/images/soho-hostel/thumb/soho-thumb.png",
      "offering": {
        "Deluxe-Females": {
          "image": "/images/soho-hostel/deluxe-female-dorm.jpg",
          "roomTypes": {
            "byOccupancy": [
              "Dormitory"
            ]
          }
        },
        "Deluxe-Males": {
          "image": "/images/soho-hostel/high-end-dorm.jpg",
          "roomTypes": {
            "byOccupancy": [
              "Dormitory"
            ]
          }
        },
        "Deluxe-Mixed": {
          "image": "/images/soho-hostel/mixed-gender-dorm.jpg",
          "roomTypes": {
            "byOccupancy": [
              "Dormitory"
            ]
          }
        }
      }
    }
  },
  {
    "property": {
      "hotelName": "Saki Okinawa",
      "location": "907-0012 Okinawa, Ishigaki Island, Misaki-cho, 1-5, Japan ",
      "country": "JP",
      "state": "Okinawa",
      "price": "￥140 to ￥310",
      "description": "1-minute walk from the Ishigakijima Ferry Terminal and provides cosy Western and Japanese rooms.",
      "rating": "2 star",
      "thumbImg": "/images/saki-okinawa/thumb/okinawa-thumb.png",
      "offering": {
        "Hallway": {
          "image": "/images/saki-okinawa/mix-gender-dorm.jpg",
          "roomTypes": {
            "byOccupancy": [
              "Dormitory"
            ]
          }
        },
        "Split-A": {
          "image": "/images/saki-okinawa/queen-standard.jpg",
          "roomTypes": {
            "byOccupancy": [
              "Single"
            ],
            "byBed": [
              "Queen"
            ],
            "byLayout": [
              "Standard"
            ]
          }
        },
        "Split-B": {
          "image": "/images/saki-okinawa/twin-double.jpg",
          "roomTypes": {
            "byOccupancy": [
              "Double"
            ],
            "byBed": [
              "Twin"
            ],
            "byLayout": [
              "Standard"
            ]
          }
        }
      }
    }
  },
  {
    "property": {
      "hotelName": "Nomadic Bohemian",
      "location": "Makri 12, Athina 117 42, Greece",
      "country": "GR",
      "state": "Athina",
      "price": "£32 to £48",
      "description": "Bright dorms in a relaxed hostel with a seasonal rooftop bar offering Acropolis views.",
      "rating": "1 star",
      "thumbImg": "/images/nomadic-bohemian/thumb/bohemian-deck-thumb.png",
      "offering": {
        "Hallway": {
          "image": "/images/nomadic-bohemian/female-dorm-view-2.jpg",
          "roomTypes": {
            "byOccupancy": [
              "Dormitory"
            ]
          }
        },
        "Mixed-A": {
          "image": "/images/nomadic-bohemian/mixed-cheap-dorm.jpg",
          "roomTypes": {
            "byOccupancy": [
              "Dormitory"
            ]
          }
        },
        "Mixed-B": {
          "image": "/images/nomadic-bohemian/mixed-dorm-view.jpg",
          "roomTypes": {
            "byOccupancy": [
              "Dormitory"
            ]
          }
        }
      }
    }
  },
  {
    "property":  {
      "hotelName": "Coco Cabana Resort & Spa",
      "location": "Avenida dos Coqueiros S/N Cumbuco Beach, Cumbuco, Caucaia, State of Ceara 61619-974 Brazil",
      "country": "BR",
      "state": "Cumbuco Beach",
      "price": "R$3300 to R$6300",
      "description": "During your stay, take advantage of some of the amenities offered, including a 24 hour front desk, a concierge, and room service",
      "rating": "4 star",
      "thumbImg": "/images/coco-cabana/thumb/coco-cabana-thumb.png",
      "offering": {
        "Bed-to-Beach": {
          "image": "/images/coco-cabana/bed-to-beach.jpg",
          "roomTypes": {
            "byOccupancy": [
              "Double"
            ],
            "byBed": [
              "King"
            ],
            "byLayout": [
              "Suite"
            ]
          }
        },
        "Sea-Side": {
          "image": "/images/coco-cabana/hollywood-king-seaside.jpg",
          "roomTypes": {
            "byOccupancy": [
              "Double"
            ],
            "byBed": [
              "King"
            ],
            "byLayout": [
              "Deluxe"
            ]
          }
        },
        "Honey-Moon": {
          "image": "/images/coco-cabana/honey-moon-queen.jpg",
          "roomTypes": {
            "byOccupancy": [
              "Double"
            ],
            "byBed": [
              "Queen"
            ],
            "byLayout": [
              "Suite"
            ]
          }
        }
      }
    }
  }
]
